\relax 
\providecommand{\transparent@use}[1]{}
\citation{richardson2008csi}
\citation{meyer2013lessons}
\citation{elazari2015survive}
\citation{durumeric2014matter}
\@writefile{toc}{\contentsline {section}{\numberline {1}Introduction}{1}}
\citation{brubaker2014using}
\citation{he2015vetting,brubaker2014using}
\citation{brubaker2014using,kupsch2014software,wheeler2014prevent,bayer2006dynamic}
\citation{meneely2009secure}
\citation{zaman2011security}
\citation{neuhaus2007predicting}
\@writefile{toc}{\contentsline {subsection}{\numberline {1.1}Related Works: Bug Finding and Addressing TLS issues}{2}}
\citation{meneely2009secure}
\citation{beurdouche2015flextls,he2015vetting}
\citation{he2015vetting}
\citation{beurdouche2015flextls}
\citation{he2015vetting}
\citation{ayewah2008using}
\citation{willems2007toward}
\@writefile{toc}{\contentsline {subsection}{\numberline {1.2}Motivation}{3}}
\@writefile{lof}{\contentsline {figure}{\numberline {1}{\ignorespaces Overview of Approach\relax }}{4}}
\providecommand*\caption@xref[2]{\@setref\relax\@undefined{#1}}
\newlabel{fig:ofa}{{1}{4}}
\newlabel{fig:ofa@cref}{{[figure][1][]1}{4}}
\@writefile{toc}{\contentsline {section}{\numberline {2}Study Design}{4}}
\@writefile{lof}{\contentsline {figure}{\numberline {2}{\ignorespaces OpenSSL: Vulnerabilities Applications\relax }}{5}}
\newlabel{fig:va}{{2}{5}}
\newlabel{fig:va@cref}{{[figure][2][]2}{5}}
\@writefile{lof}{\contentsline {figure}{\numberline {3}{\ignorespaces OpenSSL: Vulnerabilities throughout the years\relax }}{5}}
\newlabel{fig:vty}{{3}{5}}
\newlabel{fig:vty@cref}{{[figure][3][]3}{5}}
\@writefile{toc}{\contentsline {subsection}{\numberline {2.1}Distribution of Vulnerabilities throughout the Years}{5}}
\citation{zaman2011security}
\@writefile{lof}{\contentsline {figure}{\numberline {4}{\ignorespaces OpenSSL: Vulnerabilities Applications\relax }}{6}}
\newlabel{fig:dbpa}{{4}{6}}
\newlabel{fig:dbpa@cref}{{[figure][4][]4}{6}}
\@writefile{toc}{\contentsline {section}{\numberline {3}Case Study}{6}}
\@writefile{toc}{\contentsline {subsection}{\numberline {3.1}How fast are vulnerabilities repaired? }{6}}
\@writefile{toc}{\contentsline {subsection}{\numberline {3.2} Who actually repairs the vulnerabilities? }{6}}
\@writefile{lof}{\contentsline {figure}{\numberline {5}{\ignorespaces OpenSSL: Vulnerabilities Authors\relax }}{7}}
\newlabel{fig:va}{{5}{7}}
\newlabel{fig:va@cref}{{[figure][5][]5}{7}}
\@writefile{lof}{\contentsline {figure}{\numberline {6}{\ignorespaces OpenSSL: CVE Vulnerabilities Reviewers \relax }}{7}}
\newlabel{fig:cvr}{{6}{7}}
\newlabel{fig:cvr@cref}{{[figure][6][]6}{7}}
\@writefile{lof}{\contentsline {figure}{\numberline {7}{\ignorespaces OpenSSL: CVE Vulnerabilities Committers \relax }}{7}}
\newlabel{fig:cvc}{{7}{7}}
\newlabel{fig:cvc@cref}{{[figure][7][]7}{7}}
\@writefile{lof}{\contentsline {figure}{\numberline {8}{\ignorespaces Attacks Through Time\relax }}{7}}
\newlabel{fig:att}{{8}{7}}
\newlabel{fig:att@cref}{{[figure][8][]8}{7}}
\@writefile{toc}{\contentsline {subsection}{\numberline {3.3}What are the characteristics of known OpenSSL vulnerabilities?}{8}}
\@writefile{toc}{\contentsline {subsection}{\numberline {3.4}What are most frequent similarities through static analysis between vulnerabilities involved with code changes?}{8}}
\@writefile{toc}{\contentsline {subsection}{\numberline {3.5}Looking at the Changes}{8}}
\@writefile{lof}{\contentsline {figure}{\numberline {9}{\ignorespaces Function Calls in Diff Changes\relax }}{9}}
\newlabel{fig:fcd}{{9}{9}}
\newlabel{fig:fcd@cref}{{[figure][9][]9}{9}}
\@writefile{lof}{\contentsline {figure}{\numberline {10}{\ignorespaces Line Modifications in Diff Changes\relax }}{9}}
\newlabel{fig:lmd}{{10}{9}}
\newlabel{fig:lmd@cref}{{[figure][10][]10}{9}}
\@writefile{lof}{\contentsline {figure}{\numberline {11}{\ignorespaces OpenSSL: Source Code Diff Features\relax }}{9}}
\newlabel{fig:sccf}{{11}{9}}
\newlabel{fig:sccf@cref}{{[figure][11][]11}{9}}
\@writefile{toc}{\contentsline {subsection}{\numberline {3.6}Does repairing vulnerabilities require major code overhaul?}{9}}
\citation{jiang2007context}
\@writefile{lof}{\contentsline {figure}{\numberline {12}{\ignorespaces CVE 2014 351 (Old): Pre-Source Code Change\relax }}{10}}
\newlabel{fig:oscc}{{12}{10}}
\newlabel{fig:oscc@cref}{{[figure][12][]12}{10}}
\@writefile{lof}{\contentsline {figure}{\numberline {13}{\ignorespaces CVE 2014 351 (New): Post-Source Code Change\relax }}{10}}
\newlabel{fig:nscc}{{13}{10}}
\newlabel{fig:nscc@cref}{{[figure][13][]13}{10}}
\@writefile{toc}{\contentsline {subsection}{\numberline {3.7} Can control flow graphs detect TLS historical security vulnerabilities?}{10}}
\citation{zaman2011security}
\bibstyle{ACM-Reference-Format-Journals}
\bibdata{bibfile}
\bibcite{ayewah2008using}{\citeauthoryear {Ayewah, Hovemeyer, Morgenthaler, Penix, and Pugh}{Ayewah et\nobreakspace  {}al\unhbox \voidb@x \hbox {.}}{2008}}
\@writefile{lot}{\contentsline {table}{\numberline {I}{\ignorespaces Summary report: Static Analyzes 138 .c source code analuzed in OpenSSL between pre and post commit\relax }}{11}}
\newlabel{tab:sa}{{I}{11}}
\newlabel{tab:sa@cref}{{[table][1][]I}{11}}
\@writefile{toc}{\contentsline {section}{\numberline {4}Results and Conclusions}{11}}
\@writefile{toc}{\contentsline {section}{\numberline {5}Future Work}{11}}
\bibcite{bayer2006dynamic}{\citeauthoryear {Bayer, Moser, Kruegel, and Kirda}{Bayer et\nobreakspace  {}al\unhbox \voidb@x \hbox {.}}{2006}}
\bibcite{beurdouche2015flextls}{\citeauthoryear {Beurdouche, Delignat-Lavaud, Kobeissi, Pironti, and Bhargavan}{Beurdouche et\nobreakspace  {}al\unhbox \voidb@x \hbox {.}}{2015}}
\bibcite{brubaker2014using}{\citeauthoryear {Brubaker, Jana, Ray, Khurshid, and Shmatikov}{Brubaker et\nobreakspace  {}al\unhbox \voidb@x \hbox {.}}{2014}}
\bibcite{durumeric2014matter}{\citeauthoryear {Durumeric, Kasten, Adrian, Halderman, Bailey, Li, Weaver, Amann, Beekman, Payer, et\nobreakspace  {}al\unhbox \voidb@x \hbox {.}}{Durumeric et\nobreakspace  {}al\unhbox \voidb@x \hbox {.}}{2014}}
\bibcite{elazari2015survive}{\citeauthoryear {Elazari}{Elazari}{2015}}
\bibcite{he2015vetting}{\citeauthoryear {He, Rastogi, Cao, Chen, Venkatakrishnan, Yang, and Zhang}{He et\nobreakspace  {}al\unhbox \voidb@x \hbox {.}}{2015}}
\bibcite{jiang2007context}{\citeauthoryear {Jiang and Su}{Jiang and Su}{2007}}
\bibcite{kupsch2014software}{\citeauthoryear {Kupsch and Miller}{Kupsch and Miller}{2014}}
\bibcite{meneely2009secure}{\citeauthoryear {Meneely and Williams}{Meneely and Williams}{2009}}
\bibcite{meyer2013lessons}{\citeauthoryear {Meyer and Schwenk}{Meyer and Schwenk}{2013}}
\bibcite{neuhaus2007predicting}{\citeauthoryear {Neuhaus, Zimmermann, Holler, and Zeller}{Neuhaus et\nobreakspace  {}al\unhbox \voidb@x \hbox {.}}{2007}}
\bibcite{richardson2008csi}{\citeauthoryear {Richardson and Director}{Richardson and Director}{2008}}
\bibcite{wheeler2014prevent}{\citeauthoryear {Wheeler}{Wheeler}{2014}}
\bibcite{willems2007toward}{\citeauthoryear {Willems, Holz, and Freiling}{Willems et\nobreakspace  {}al\unhbox \voidb@x \hbox {.}}{2007}}
\bibcite{zaman2011security}{\citeauthoryear {Zaman, Adams, and Hassan}{Zaman et\nobreakspace  {}al\unhbox \voidb@x \hbox {.}}{2011}}
\lastpage{12}
\@writefile{lot}{\contentsline {table}{\numberline {II}{\ignorespaces OpenSSL C Source Changes mapped to CVE Vulnerabilities: Static Analysis( Only Year: 2015)\relax }}{13}}
\newlabel{my-label}{{II}{13}}
\newlabel{my-label@cref}{{[table][2][2147483647]II}{13}}
\newlabel{invalid}{{5}{App--1}}
\newlabel{invalid@cref}{{[section][5][]5}{App--1}}
